Lab1/project_1/project_1.sim/sim_1/synth/func/xsim/tb_FourDigitDriver.vcd
$date
   Mon Oct 14 20:03:10 2024
$end
$version
  2018.3
$end
$timescale
  1ps
$end
$scope module tb_FourDigitDriver $end
$var reg 1 ! clk $end
$var reg 1 " reset $end
$var wire 1 # an3 $end
$var wire 1 $ an2 $end
$var wire 1 % an1 $end
$var wire 1 & an0 $end
$var wire 1 ' a $end
$var wire 1 ( b $end
$var wire 1 ) c $end
$var wire 1 * d $end
$var wire 1 + e $end
$var wire 1 , f $end
$var wire 1 - g $end
$var wire 1 . dp $end
$var wire 4 / counter [3:0] $end
$var wire 4 0 char [3:0] $end
$scope module FourDigitLEDdriver_inst $end
$var wire 1 ' a $end
$var wire 1 & an0 $end
$var wire 1 1 an0_OBUF $end
$var wire 1 % an1 $end
$var wire 1 2 an1_OBUF $end
$var wire 1 $ an2 $end
$var wire 1 3 an2_OBUF $end
$var wire 1 # an3 $end
$var wire 1 4 an3_OBUF $end
$var wire 1 ( b $end
$var wire 1 5 b_OBUF $end
$var wire 1 ) c $end
$var wire 4 0 char [3:0] $end
$var wire 2 6 char_OBUF [1:0] $end
$var wire 1 7 \char_reg[0]_i_1_n_0  $end
$var wire 1 8 \char_reg[1]_i_1_n_0  $end
$var wire 1 9 \char_reg[1]_i_2_n_0  $end
$var wire 1 : clk $end
$var wire 1 ; clk_IBUF $end
$var wire 1 < clk_IBUF_BUFG $end
$var wire 4 / counter [3:0] $end
$var wire 4 = counter_OBUF [3:0] $end
$var wire 1 * d $end
$var wire 1 . dp $end
$var wire 1 + e $end
$var wire 1 > e_OBUF $end
$var wire 1 , f $end
$var wire 1 - g $end
$var wire 1 ? new_clk $end
$var wire 4 @ p_0_in [3:0] $end
$var wire 1 A reset $end
$var wire 1 B reset_IBUF $end
$var wire 1 C reset_prime $end
$var wire 1 D reset_sync $end
$var wire 1 E NLW_MMCME2_BASE_inst_CLKFBOUT_UNCONNECTED $end
$var wire 1 F NLW_MMCME2_BASE_inst_CLKFBOUTB_UNCONNECTED $end
$var wire 1 G NLW_MMCME2_BASE_inst_CLKFBSTOPPED_UNCONNECTED $end
$var wire 1 H NLW_MMCME2_BASE_inst_CLKINSTOPPED_UNCONNECTED $end
$var wire 1 I NLW_MMCME2_BASE_inst_CLKOUT0B_UNCONNECTED $end
$var wire 1 J NLW_MMCME2_BASE_inst_CLKOUT1_UNCONNECTED $end
$var wire 1 K NLW_MMCME2_BASE_inst_CLKOUT1B_UNCONNECTED $end
$var wire 1 L NLW_MMCME2_BASE_inst_CLKOUT2_UNCONNECTED $end
$var wire 1 M NLW_MMCME2_BASE_inst_CLKOUT2B_UNCONNECTED $end
$var wire 1 N NLW_MMCME2_BASE_inst_CLKOUT3_UNCONNECTED $end
$var wire 1 O NLW_MMCME2_BASE_inst_CLKOUT3B_UNCONNECTED $end
$var wire 1 P NLW_MMCME2_BASE_inst_CLKOUT4_UNCONNECTED $end
$var wire 1 Q NLW_MMCME2_BASE_inst_CLKOUT5_UNCONNECTED $end
$var wire 1 R NLW_MMCME2_BASE_inst_CLKOUT6_UNCONNECTED $end
$var wire 1 S NLW_MMCME2_BASE_inst_DRDY_UNCONNECTED $end
$var wire 1 T NLW_MMCME2_BASE_inst_LOCKED_UNCONNECTED $end
$var wire 1 U NLW_MMCME2_BASE_inst_PSDONE_UNCONNECTED $end
$var wire 16 V NLW_MMCME2_BASE_inst_DO_UNCONNECTED [15:0] $end
$upscope $end
$upscope $end
$enddefinitions $end
#0
$dumpvars
0!
x"
x#
x$
x%
x&
0'
0(
0)
0*
0+
0,
0-
0.
bx /
b0 0
x1
x2
x3
x4
05
b0 6
x7
x8
x9
0:
0;
0<
bx =
0>
0?
bx @
xA
xB
xC
xD
0E
1F
xG
xH
1I
0J
1K
0L
1M
0N
1O
0P
0Q
0R
xS
xT
xU
bx V
$end
#100
1#
1$
1%
1&
b0 /
11
12
13
14
07
08
19
b0 =
b1 @
0C
0D
0G
0H
0S
0T
0U
bx V
#5000
1!
1:
1;
1<
1?
1E
0F
0I
1J
0K
1L
0M
1N
0O
1P
1Q
1R
#10000
0!
0:
0;
0<
#15000
1!
1:
1;
1<
0?
0E
1F
1I
0J
1K
0L
1M
0N
1O
0P
0Q
0R
#20000
0!
0:
0;
0<
#25000
1!
1:
1;
1<
1?
1E
0F
0I
1J
0K
1L
0M
1N
0O
1P
1Q
1R
#30000
0!
0:
0;
0<
#35000
1!
1:
1;
1<
0?
0E
1F
1I
0J
1K
0L
1M
0N
1O
0P
0Q
0R
#40000
0!
0:
0;
0<
#45000
1!
1:
1;
1<
1?
1E
0F
0I
1J
0K
1L
0M
1N
0O
1P
1Q
1R
#50000
0!
0:
0;
0<
#55000
1!
1:
1;
1<
0?
0E
1F
1I
0J
1K
0L
1M
0N
1O
0P
0Q
0R
#60000
0!
0:
0;
0<
#65000
1!
1:
1;
1<
1?
1E
0F
0I
1J
0K
1L
0M
1N
0O
1P
1Q
1R
#70000
0!
0:
0;
0<
#75000
1!
1:
1;
1<
0?
0E
1F
1I
0J
1K
0L
1M
0N
1O
0P
0Q
0R
#80000
0!
0:
0;
0<
#85000
1!
1:
1;
1<
1?
1E
0F
0I
1J
0K
1L
0M
1N
0O
1P
1Q
1R
#90000
0!
1"
0:
0;
0<
1A
1B
#95000
1!
1:
1;
1<
0?
0E
1F
1I
0J
1K
0L
1M
0N
1O
0P
0Q
0R
#100000
0!
0:
0;
0<
#105000
1!
1:
1;
1<
1?
1E
0F
0I
1J
0K
1L
0M
1N
0O
1P
1Q
1R
#105100
b1 /
09
b1 =
b10 @
1C
#110000
0!
0:
0;
0<
#115000
1!
1:
1;
1<
0?
0E
1F
1I
0J
1K
0L
1M
0N
1O
0P
0Q
0R
#115100
1D
#115200
b0 /
19
b0 =
b1 @
#120000
0!
0:
0;
0<
#125000
1!
1:
1;
1<
1?
1E
0F
0I
1J
0K
1L
0M
1N
0O
1P
1Q
1R
#130000
0!
0:
0;
0<
#135000
1!
1:
1;
1<
0?
0E
1F
1I
0J
1K
0L
1M
0N
1O
0P
0Q
0R
#140000
0!
0:
0;
0<
#145000
1!
1:
1;
1<
1?
1E
0F
0I
1J
0K
1L
0M
1N
0O
1P
1Q
1R
#150000
0!
0:
0;
0<
#155000
1!
1:
1;
1<
0?
0E
1F
1I
0J
1K
0L
1M
0N
1O
0P
0Q
0R
#160000
0!
0:
0;
0<
#165000
1!
1:
1;
1<
1?
1E
0F
0I
1J
0K
1L
0M
1N
0O
1P
1Q
1R
#170000
0!
0:
0;
0<
#175000
1!
1:
1;
1<
0?
0E
1F
1I
0J
1K
0L
1M
0N
1O
0P
0Q
0R
#180000
0!
0:
0;
0<
#185000
1!
1:
1;
1<
1?
1E
0F
0I
1J
0K
1L
0M
1N
0O
1P
1Q
1R
#190000
0!
0:
0;
0<
#195000
1!
1:
1;
1<
0?
0E
1F
1I
0J
1K
0L
1M
0N
1O
0P
0Q
0R
#200000
0!
0:
0;
0<
#205000
1!
1:
1;
1<
1?
1E
0F
0I
1J
0K
1L
0M
1N
0O
1P
1Q
1R
#210000
0!
0:
0;
0<
#215000
1!
1:
1;
1<
0?
0E
1F
1I
0J
1K
0L
1M
0N
1O
0P
0Q
0R
#220000
0!
0:
0;
0<
#225000
1!
1:
1;
1<
1?
1E
0F
0I
1J
0K
1L
0M
1N
0O
1P
1Q
1R
#230000
0!
0:
0;
0<
#235000
1!
1:
1;
1<
0?
0E
1F
1I
0J
1K
0L
1M
0N
1O
0P
0Q
0R
#240000
0!
0"
0:
0;
0<
0A
0B
#245000
1!
1:
1;
1<
1?
1E
0F
0I
1J
0K
1L
0M
1N
0O
1P
1Q
1R
#245100
0C
#250000
0!
0:
0;
0<
#255000
1!
1:
1;
1<
0?
0E
1F
1I
0J
1K
0L
1M
0N
1O
0P
0Q
0R
#255100
0D
#260000
0!
0:
0;
0<
#265000
1!
1:
1;
1<
1?
1E
0F
0I
1J
0K
1L
0M
1N
0O
1P
1Q
1R
#265100
b1 /
09
b1 =
b10 @
#270000
0!
0:
0;
0<
#275000
1!
1:
1;
1<
0?
0E
1F
1I
0J
1K
0L
1M
0N
1O
0P
0Q
0R
#280000
0!
0:
0;
0<
#285000
1!
1:
1;
1<
1?
1E
0F
0I
1J
0K
1L
0M
1N
0O
1P
1Q
1R
#285100
0&
b10 /
01
17
b10 =
b11 @
#290000
0!
0:
0;
0<
#295000
1!
1:
1;
1<
0?
0E
1F
1I
0J
1K
0L
1M
0N
1O
0P
0Q
0R
#300000
0!
0:
0;
0<
#305000
1!
1:
1;
1<
1?
1E
0F
0I
1J
0K
1L
0M
1N
0O
1P
1Q
1R
#305100
1&
b11 /
11
19
b11 =
b100 @
#305200
1(
1)
b1 0
15
b1 6
0>
#310000
0!
0:
0;
0<
#315000
1!
1:
1;
1<
0?
0E
1F
1I
0J
1K
0L
1M
0N
1O
0P
0Q
0R
#320000
0!
0:
0;
0<
#325000
1!
1:
1;
1<
1?
1E
0F
0I
1J
0K
1L
0M
1N
0O
1P
1Q
1R
#325100
b100 /
07
18
09
b100 =
b101 @
#330000
0!
0:
0;
0<
#335000
1!
1:
1;
1<
0?
0E
1F
1I
0J
1K
0L
1M
0N
1O
0P
0Q
0R
#340000
0!
0:
0;
0<
#345000
1!
1:
1;
1<
1?
1E
0F
0I
1J
0K
1L
0M
1N
0O
1P
1Q
1R
#345100
b101 /
b101 =
b110 @
#350000
0!
0:
0;
0<
#355000
1!
1:
1;
1<
0?
0E
1F
1I
0J
1K
0L
1M
0N
1O
0P
0Q
0R
#360000
0!
0:
0;
0<
#365000
1!
1:
1;
1<
1?
1E
0F
0I
1J
0K
1L
0M
1N
0O
1P
1Q
1R
#365100
0%
b110 /
02
07
b110 =
b111 @
#370000
0!
0:
0;
0<
#375000
1!
1:
1;
1<
0?
0E
1F
1I
0J
1K
0L
1M
0N
1O
0P
0Q
0R
#380000
0!
0:
0;
0<
#385000
1!
1:
1;
1<
1?
1E
0F
0I
1J
0K
1L
0M
1N
0O
1P
1Q
1R
#385100
1%
b111 /
12
19
b111 =
b1000 @
#385200
1'
0)
1*
1+
1-
b10 0
15
b10 6
1>
#390000
0!
0:
0;
0<
#395000
1!
1:
1;
1<
0?
0E
1F
1I
0J
1K
0L
1M
0N
1O
0P
0Q
0R
#400000
0!
0:
0;
0<
#405000
1!
1:
1;
1<
1?
1E
0F
0I
1J
0K
1L
0M
1N
0O
1P
1Q
1R
#405100
b1000 /
07
18
09
b1000 =
b1001 @
#410000
0!
0:
0;
0<
#415000
1!
1:
1;
1<
0?
0E
1F
1I
0J
1K
0L
1M
0N
1O
0P
0Q
0R
#420000
0!
0:
0;
0<
#425000
1!
1:
1;
1<
1?
1E
0F
0I
1J
0K
1L
0M
1N
0O
1P
1Q
1R
#425100
b1001 /
b1001 =
b1010 @
#430000
0!
0:
0;
0<
#435000
1!
1:
1;
1<
0?
0E
1F
1I
0J
1K
0L
1M
0N
1O
0P
0Q
0R
#440000
0!
0:
0;
0<
#445000
1!
1:
1;
1<
1?
1E
0F
0I
1J
0K
1L
0M
1N
0O
1P
1Q
1R
#445100
0$
b1010 /
03
17
b1010 =
b1011 @
#450000
0!
0:
0;
0<
#455000
1!
1:
1;
1<
0?
0E
1F
1I
0J
1K
0L
1M
0N
1O
0P
0Q
0R
#460000
0!
0:
0;
0<
#465000
1!
1:
1;
1<
1?
1E
0F
0I
1J
0K
1L
0M
1N
0O
1P
1Q
1R
#465100
1$
b1011 /
13
19
b1011 =
b1100 @
#465200
1)
0+
b11 0
15
b11 6
0>
#470000
0!
0:
0;
0<
#475000
1!
1:
1;
1<
0?
0E
1F
1I
0J
1K
0L
1M
0N
1O
0P
0Q
0R
#480000
0!
0:
0;
0<
#485000
1!
1:
1;
1<
1?
1E
0F
0I
1J
0K
1L
0M
1N
0O
1P
1Q
1R
#485100
b1100 /
07
18
09
b1100 =
b1101 @
#490000
0!
0:
0;
0<
#495000
1!
1:
1;
1<
0?
0E
1F
1I
0J
1K
0L
1M
0N
1O
0P
0Q
0R
#500000
0!
0:
0;
0<
#505000
1!
1:
1;
1<
1?
1E
0F
0I
1J
0K
1L
0M
1N
0O
1P
1Q
1R
#505100
b1101 /
b1101 =
b1110 @
#510000
0!
0:
0;
0<
#515000
1!
1:
1;
1<
0?
0E
1F
1I
0J
1K
0L
1M
0N
1O
0P
0Q
0R
#520000
0!
0:
0;
0<
#525000
1!
1:
1;
1<
1?
1E
0F
0I
1J
0K
1L
0M
1N
0O
1P
1Q
1R
#525100
0#
b1110 /
04
07
b1110 =
b1111 @
#530000
0!
0:
0;
0<
#535000
1!
1:
1;
1<
0?
0E
1F
1I
0J
1K
0L
1M
0N
1O
0P
0Q
0R
#540000
0!
0:
0;
0<
#545000
1!
1:
1;
1<
1?
1E
0F
0I
1J
0K
1L
0M
1N
0O
1P
1Q
1R
#545100
1#
b1111 /
14
b1111 =
b0 @
#550000
0!
0:
0;
0<
#555000
1!
1:
1;
1<
0?
0E
1F
1I
0J
1K
0L
1M
0N
1O
0P
0Q
0R
#560000
0!
0:
0;
0<
#565000
1!
1:
1;
1<
1?
1E
0F
0I
1J
0K
1L
0M
1N
0O
1P
1Q
1R
#565100
b0 /
07
08
19
b0 =
b1 @
#565200
0'
0(
0)
0*
0-
b0 0
05
b0 6
0>
#570000
0!
0:
0;
0<
#575000
1!
1:
1;
1<
0?
0E
1F
1I
0J
1K
0L
1M
0N
1O
0P
0Q
0R
#580000
0!
0:
0;
0<
#585000
1!
1:
1;
1<
1?
1E
0F
0I
1J
0K
1L
0M
1N
0O
1P
1Q
1R
#585100
b1 /
09
b1 =
b10 @
#590000
0!
0:
0;
0<
#595000
1!
1:
1;
1<
0?
0E
1F
1I
0J
1K
0L
1M
0N
1O
0P
0Q
0R
#600000
0!
0:
0;
0<
#605000
1!
1:
1;
1<
1?
1E
0F
0I
1J
0K
1L
0M
1N
0O
1P
1Q
1R
#605100
0&
b10 /
01
17
b10 =
b11 @
#610000
0!
0:
0;
0<
#615000
1!
1:
1;
1<
0?
0E
1F
1I
0J
1K
0L
1M
0N
1O
0P
0Q
0R
#620000
0!
0:
0;
0<
#625000
1!
1:
1;
1<
1?
1E
0F
0I
1J
0K
1L
0M
1N
0O
1P
1Q
1R
#625100
1&
b11 /
11
19
b11 =
b100 @
#625200
1(
1)
b1 0
15
b1 6
0>
#630000
0!
0:
0;
0<
#635000
1!
1:
1;
1<
0?
0E
1F
1I
0J
1K
0L
1M
0N
1O
0P
0Q
0R
#640000
0!
0:
0;
0<
#645000
1!
1:
1;
1<
1?
1E
0F
0I
1J
0K
1L
0M
1N
0O
1P
1Q
1R
#645100
b100 /
07
18
09
b100 =
b101 @
#650000
0!
0:
0;
0<
#655000
1!
1:
1;
1<
0?
0E
1F
1I
0J
1K
0L
1M
0N
1O
0P
0Q
0R
#660000
0!
0:
0;
0<
#665000
1!
1:
1;
1<
1?
1E
0F
0I
1J
0K
1L
0M
1N
0O
1P
1Q
1R
#665100
b101 /
b101 =
b110 @
#670000
0!
0:
0;
0<
#675000
1!
1:
1;
1<
0?
0E
1F
1I
0J
1K
0L
1M
0N
1O
0P
0Q
0R
#680000
0!
0:
0;
0<
#685000
1!
1:
1;
1<
1?
1E
0F
0I
1J
0K
1L
0M
1N
0O
1P
1Q
1R
#685100
0%
b110 /
02
07
b110 =
b111 @
#690000
0!
0:
0;
0<
#695000
1!
1:
1;
1<
0?
0E
1F
1I
0J
1K
0L
1M
0N
1O
0P
0Q
0R
#700000
0!
0:
0;
0<
#705000
1!
1:
1;
1<
1?
1E
0F
0I
1J
0K
1L
0M
1N
0O
1P
1Q
1R
#705100
1%
b111 /
12
19
b111 =
b1000 @
#705200
1'
0)
1*
1+
1-
b10 0
15
b10 6
1>
#710000
0!
0:
0;
0<
#715000
1!
1:
1;
1<
0?
0E
1F
1I
0J
1K
0L
1M
0N
1O
0P
0Q
0R
#720000
0!
0:
0;
0<
#725000
1!
1:
1;
1<
1?
1E
0F
0I
1J
0K
1L
0M
1N
0O
1P
1Q
1R
#725100
b1000 /
07
18
09
b1000 =
b1001 @
#730000
0!
0:
0;
0<
#735000
1!
1:
1;
1<
0?
0E
1F
1I
0J
1K
0L
1M
0N
1O
0P
0Q
0R
#740000
0!
0:
0;
0<
#745000
1!
1:
1;
1<
1?
1E
0F
0I
1J
0K
1L
0M
1N
0O
1P
1Q
1R
#745100
b1001 /
b1001 =
b1010 @
#750000
0!
0:
0;
0<
#755000
1!
1:
1;
1<
0?
0E
1F
1I
0J
1K
0L
1M
0N
1O
0P
0Q
0R
#760000
0!
0:
0;
0<
#765000
1!
1:
1;
1<
1?
1E
0F
0I
1J
0K
1L
0M
1N
0O
1P
1Q
1R
#765100
0$
b1010 /
03
17
b1010 =
b1011 @
#770000
0!
0:
0;
0<
#775000
1!
1:
1;
1<
0?
0E
1F
1I
0J
1K
0L
1M
0N
1O
0P
0Q
0R
#780000
0!
0:
0;
0<
#785000
1!
1:
1;
1<
1?
1E
0F
0I
1J
0K
1L
0M
1N
0O
1P
1Q
1R
#785100
1$
b1011 /
13
19
b1011 =
b1100 @
#785200
1)
0+
b11 0
15
b11 6
0>
#790000
0!
0:
0;
0<
#795000
1!
1:
1;
1<
0?
0E
1F
1I
0J
1K
0L
1M
0N
1O
0P
0Q
0R
#800000
0!
0:
0;
0<
#805000
1!
1:
1;
1<
1?
1E
0F
0I
1J
0K
1L
0M
1N
0O
1P
1Q
1R
#805100
b1100 /
07
18
09
b1100 =
b1101 @
#810000
0!
0:
0;
0<
#815000
1!
1:
1;
1<
0?
0E
1F
1I
0J
1K
0L
1M
0N
1O
0P
0Q
0R
#820000
0!
0:
0;
0<
#825000
1!
1:
1;
1<
1?
1E
0F
0I
1J
0K
1L
0M
1N
0O
1P
1Q
1R
#825100
b1101 /
b1101 =
b1110 @
#830000
0!
0:
0;
0<
#835000
1!
1:
1;
1<
0?
0E
1F
1I
0J
1K
0L
1M
0N
1O
0P
0Q
0R
#840000
0!
0:
0;
0<
#845000
1!
1:
1;
1<
1?
1E
0F
0I
1J
0K
1L
0M
1N
0O
1P
1Q
1R
#845100
0#
b1110 /
04
07
b1110 =
b1111 @
#850000
0!
0:
0;
0<
#855000
1!
1:
1;
1<
0?
0E
1F
1I
0J
1K
0L
1M
0N
1O
0P
0Q
0R
#860000
0!
0:
0;
0<
#865000
1!
1:
1;
1<
1?
1E
0F
0I
1J
0K
1L
0M
1N
0O
1P
1Q
1R
#865100
1#
b1111 /
14
b1111 =
b0 @
#870000
0!
0:
0;
0<
#875000
1!
1:
1;
1<
0?
0E
1F
1I
0J
1K
0L
1M
0N
1O
0P
0Q
0R
#880000
0!
0:
0;
0<
#885000
1!
1:
1;
1<
1?
1E
0F
0I
1J
0K
1L
0M
1N
0O
1P
1Q
1R
#885100
b0 /
07
08
19
b0 =
b1 @
#885200
0'
0(
0)
0*
0-
b0 0
05
b0 6
0>
#890000
0!
0:
0;
0<
#895000
1!
1:
1;
1<
0?
0E
1F
1I
0J
1K
0L
1M
0N
1O
0P
0Q
0R
#900000
0!
0:
0;
0<
#905000
1!
1:
1;
1<
1?
1E
0F
0I
1J
0K
1L
0M
1N
0O
1P
1Q
1R
#905100
b1 /
09
b1 =
b10 @
#910000
0!
0:
0;
0<
#915000
1!
1:
1;
1<
0?
0E
1F
1I
0J
1K
0L
1M
0N
1O
0P
0Q
0R
#920000
0!
0:
0;
0<
#925000
1!
1:
1;
1<
1?
1E
0F
0I
1J
0K
1L
0M
1N
0O
1P
1Q
1R
#925100
0&
b10 /
01
17
b10 =
b11 @
#930000
0!
0:
0;
0<
#935000
1!
1:
1;
1<
0?
0E
1F
1I
0J
1K
0L
1M
0N
1O
0P
0Q
0R
#940000
0!
0:
0;
0<
#945000
1!
1:
1;
1<
1?
1E
0F
0I
1J
0K
1L
0M
1N
0O
1P
1Q
1R
#945100
1&
b11 /
11
19
b11 =
b100 @
#945200
1(
1)
b1 0
15
b1 6
0>
#950000
0!
0:
0;
0<
#955000
1!
1:
1;
1<
0?
0E
1F
1I
0J
1K
0L
1M
0N
1O
0P
0Q
0R
#960000
0!
0:
0;
0<
#965000
1!
1:
1;
1<
1?
1E
0F
0I
1J
0K
1L
0M
1N
0O
1P
1Q
1R
#965100
b100 /
07
18
09
b100 =
b101 @
#970000
0!
0:
0;
0<
#975000
1!
1:
1;
1<
0?
0E
1F
1I
0J
1K
0L
1M
0N
1O
0P
0Q
0R
#980000
0!
0:
0;
0<
#985000
1!
1:
1;
1<
1?
1E
0F
0I
1J
0K
1L
0M
1N
0O
1P
1Q
1R
#985100
b101 /
b101 =
b110 @
