Lab1/project_1/project_1.sim/sim_1/behav/xsim/simulate.log
Vivado Simulator 2018.3
Time resolution is 1 ps
clk=0 reset=x an3=x an2=x an1=x an0=x a=x b=x c=x d=x e=x f=x g=x dp=0
clk=1 reset=x an3=x an2=x an1=x an0=x a=x b=x c=x d=x e=x f=x g=x dp=0
clk=0 reset=x an3=x an2=x an1=x an0=x a=x b=x c=x d=x e=x f=x g=x dp=0
clk=1 reset=x an3=x an2=x an1=x an0=x a=x b=x c=x d=x e=x f=x g=x dp=0
clk=0 reset=x an3=x an2=x an1=x an0=x a=x b=x c=x d=x e=x f=x g=x dp=0
clk=1 reset=x an3=x an2=x an1=x an0=x a=x b=x c=x d=x e=x f=x g=x dp=0
clk=0 reset=x an3=x an2=x an1=x an0=x a=x b=x c=x d=x e=x f=x g=x dp=0
clk=1 reset=x an3=x an2=x an1=x an0=x a=x b=x c=x d=x e=x f=x g=x dp=0
clk=0 reset=x an3=x an2=x an1=x an0=x a=x b=x c=x d=x e=x f=x g=x dp=0
clk=1 reset=x an3=x an2=x an1=x an0=x a=x b=x c=x d=x e=x f=x g=x dp=0
clk=0 reset=x an3=x an2=x an1=x an0=x a=x b=x c=x d=x e=x f=x g=x dp=0
clk=1 reset=x an3=x an2=x an1=x an0=x a=x b=x c=x d=x e=x f=x g=x dp=0
clk=0 reset=x an3=x an2=x an1=x an0=x a=x b=x c=x d=x e=x f=x g=x dp=0
clk=1 reset=x an3=x an2=x an1=x an0=x a=x b=x c=x d=x e=x f=x g=x dp=0
clk=0 reset=x an3=x an2=x an1=x an0=x a=x b=x c=x d=x e=x f=x g=x dp=0
clk=1 reset=x an3=x an2=x an1=x an0=x a=x b=x c=x d=x e=x f=x g=x dp=0
clk=0 reset=x an3=x an2=x an1=x an0=x a=x b=x c=x d=x e=x f=x g=x dp=0
clk=1 reset=x an3=x an2=x an1=x an0=x a=x b=x c=x d=x e=x f=x g=x dp=0
clk=0 reset=1 an3=x an2=x an1=x an0=x a=x b=x c=x d=x e=x f=x g=x dp=0
clk=1 reset=1 an3=x an2=x an1=x an0=x a=x b=x c=x d=x e=x f=x g=x dp=0
clk=0 reset=1 an3=x an2=x an1=x an0=x a=x b=x c=x d=x e=x f=x g=x dp=0
clk=1 reset=1 an3=1 an2=1 an1=1 an0=1 a=x b=x c=x d=x e=x f=x g=x dp=0
clk=0 reset=1 an3=1 an2=1 an1=1 an0=1 a=x b=x c=x d=x e=x f=x g=x dp=0
clk=1 reset=1 an3=1 an2=1 an1=1 an0=1 a=x b=x c=x d=x e=x f=x g=x dp=0
clk=0 reset=1 an3=1 an2=1 an1=1 an0=1 a=x b=x c=x d=x e=x f=x g=x dp=0
clk=1 reset=1 an3=1 an2=1 an1=1 an0=1 a=x b=x c=x d=x e=x f=x g=x dp=0
clk=0 reset=1 an3=1 an2=1 an1=1 an0=1 a=x b=x c=x d=x e=x f=x g=x dp=0
clk=1 reset=1 an3=1 an2=1 an1=1 an0=1 a=x b=x c=x d=x e=x f=x g=x dp=0
clk=0 reset=1 an3=1 an2=1 an1=1 an0=1 a=x b=x c=x d=x e=x f=x g=x dp=0
clk=1 reset=1 an3=1 an2=1 an1=1 an0=1 a=x b=x c=x d=x e=x f=x g=x dp=0
clk=0 reset=1 an3=1 an2=1 an1=1 an0=1 a=x b=x c=x d=x e=x f=x g=x dp=0
clk=1 reset=1 an3=1 an2=1 an1=1 an0=1 a=x b=x c=x d=x e=x f=x g=x dp=0
clk=0 reset=1 an3=1 an2=1 an1=1 an0=1 a=x b=x c=x d=x e=x f=x g=x dp=0
clk=1 reset=1 an3=1 an2=1 an1=1 an0=1 a=x b=x c=x d=x e=x f=x g=x dp=0
clk=0 reset=1 an3=1 an2=1 an1=1 an0=1 a=x b=x c=x d=x e=x f=x g=x dp=0
clk=1 reset=1 an3=1 an2=1 an1=1 an0=1 a=x b=x c=x d=x e=x f=x g=x dp=0
clk=0 reset=1 an3=1 an2=1 an1=1 an0=1 a=x b=x c=x d=x e=x f=x g=x dp=0
clk=1 reset=1 an3=1 an2=1 an1=1 an0=1 a=x b=x c=x d=x e=x f=x g=x dp=0
clk=0 reset=1 an3=1 an2=1 an1=1 an0=1 a=x b=x c=x d=x e=x f=x g=x dp=0
clk=1 reset=1 an3=1 an2=1 an1=1 an0=1 a=x b=x c=x d=x e=x f=x g=x dp=0
clk=0 reset=1 an3=1 an2=1 an1=1 an0=1 a=x b=x c=x d=x e=x f=x g=x dp=0
clk=1 reset=1 an3=1 an2=1 an1=1 an0=1 a=x b=x c=x d=x e=x f=x g=x dp=0
clk=0 reset=1 an3=1 an2=1 an1=1 an0=1 a=x b=x c=x d=x e=x f=x g=x dp=0
clk=1 reset=1 an3=1 an2=1 an1=1 an0=1 a=x b=x c=x d=x e=x f=x g=x dp=0
clk=0 reset=1 an3=1 an2=1 an1=1 an0=1 a=x b=x c=x d=x e=x f=x g=x dp=0
clk=1 reset=1 an3=1 an2=1 an1=1 an0=1 a=x b=x c=x d=x e=x f=x g=x dp=0
clk=0 reset=1 an3=1 an2=1 an1=1 an0=1 a=x b=x c=x d=x e=x f=x g=x dp=0
clk=1 reset=1 an3=1 an2=1 an1=1 an0=1 a=x b=x c=x d=x e=x f=x g=x dp=0
clk=0 reset=0 an3=1 an2=1 an1=1 an0=1 a=x b=x c=x d=x e=x f=x g=x dp=0
clk=1 reset=0 an3=1 an2=1 an1=1 an0=1 a=x b=x c=x d=x e=x f=x g=x dp=0
clk=0 reset=0 an3=1 an2=1 an1=1 an0=1 a=x b=x c=x d=x e=x f=x g=x dp=0
clk=1 reset=0 an3=1 an2=1 an1=1 an0=1 a=x b=x c=x d=x e=x f=x g=x dp=0
clk=0 reset=0 an3=1 an2=1 an1=1 an0=1 a=x b=x c=x d=x e=x f=x g=x dp=0
clk=1 reset=0 an3=1 an2=1 an1=1 an0=1 a=0 b=1 c=1 d=0 e=0 f=0 g=1 dp=0
clk=0 reset=0 an3=1 an2=1 an1=1 an0=1 a=0 b=1 c=1 d=0 e=0 f=0 g=1 dp=0
clk=1 reset=0 an3=1 an2=1 an1=1 an0=1 a=0 b=1 c=1 d=0 e=0 f=0 g=1 dp=0
clk=0 reset=0 an3=1 an2=1 an1=1 an0=1 a=0 b=1 c=1 d=0 e=0 f=0 g=1 dp=0
clk=1 reset=0 an3=1 an2=1 an1=1 an0=0 a=0 b=1 c=1 d=0 e=0 f=0 g=1 dp=0
clk=0 reset=0 an3=1 an2=1 an1=1 an0=0 a=0 b=1 c=1 d=0 e=0 f=0 g=1 dp=0
clk=1 reset=0 an3=1 an2=1 an1=1 an0=0 a=0 b=1 c=1 d=0 e=0 f=0 g=1 dp=0
clk=0 reset=0 an3=1 an2=1 an1=1 an0=0 a=0 b=1 c=1 d=0 e=0 f=0 g=1 dp=0
clk=1 reset=0 an3=1 an2=1 an1=1 an0=1 a=0 b=1 c=0 d=0 e=1 f=0 g=0 dp=0
clk=0 reset=0 an3=1 an2=1 an1=1 an0=1 a=0 b=1 c=0 d=0 e=1 f=0 g=0 dp=0
clk=1 reset=0 an3=1 an2=1 an1=1 an0=1 a=0 b=1 c=0 d=0 e=1 f=0 g=0 dp=0
clk=0 reset=0 an3=1 an2=1 an1=1 an0=1 a=0 b=1 c=0 d=0 e=1 f=0 g=0 dp=0
clk=1 reset=0 an3=1 an2=1 an1=1 an0=1 a=0 b=1 c=0 d=0 e=1 f=0 g=0 dp=0
clk=0 reset=0 an3=1 an2=1 an1=1 an0=1 a=0 b=1 c=0 d=0 e=1 f=0 g=0 dp=0
clk=1 reset=0 an3=1 an2=1 an1=1 an0=1 a=0 b=1 c=0 d=0 e=1 f=0 g=0 dp=0
clk=0 reset=0 an3=1 an2=1 an1=1 an0=1 a=0 b=1 c=0 d=0 e=1 f=0 g=0 dp=0
clk=1 reset=0 an3=1 an2=1 an1=1 an0=1 a=0 b=1 c=0 d=0 e=1 f=0 g=0 dp=0
clk=0 reset=0 an3=1 an2=1 an1=1 an0=1 a=0 b=1 c=0 d=0 e=1 f=0 g=0 dp=0
clk=1 reset=0 an3=1 an2=1 an1=1 an0=1 a=0 b=1 c=0 d=0 e=1 f=0 g=0 dp=0
clk=0 reset=0 an3=1 an2=1 an1=1 an0=1 a=0 b=1 c=0 d=0 e=1 f=0 g=0 dp=0
clk=1 reset=0 an3=1 an2=1 an1=0 an0=1 a=0 b=1 c=0 d=0 e=1 f=0 g=0 dp=0
clk=0 reset=0 an3=1 an2=1 an1=0 an0=1 a=0 b=1 c=0 d=0 e=1 f=0 g=0 dp=0
clk=1 reset=0 an3=1 an2=1 an1=0 an0=1 a=0 b=1 c=0 d=0 e=1 f=0 g=0 dp=0
clk=0 reset=0 an3=1 an2=1 an1=0 an0=1 a=0 b=1 c=0 d=0 e=1 f=0 g=0 dp=0
clk=1 reset=0 an3=1 an2=1 an1=1 an0=1 a=0 b=1 c=1 d=0 e=0 f=0 g=0 dp=0
clk=0 reset=0 an3=1 an2=1 an1=1 an0=1 a=0 b=1 c=1 d=0 e=0 f=0 g=0 dp=0
clk=1 reset=0 an3=1 an2=1 an1=1 an0=1 a=0 b=1 c=1 d=0 e=0 f=0 g=0 dp=0
clk=0 reset=0 an3=1 an2=1 an1=1 an0=1 a=0 b=1 c=1 d=0 e=0 f=0 g=0 dp=0
clk=1 reset=0 an3=1 an2=1 an1=1 an0=1 a=0 b=1 c=1 d=0 e=0 f=0 g=0 dp=0
clk=0 reset=0 an3=1 an2=1 an1=1 an0=1 a=0 b=1 c=1 d=0 e=0 f=0 g=0 dp=0
clk=1 reset=0 an3=1 an2=1 an1=1 an0=1 a=0 b=1 c=1 d=0 e=0 f=0 g=0 dp=0
clk=0 reset=0 an3=1 an2=1 an1=1 an0=1 a=0 b=1 c=1 d=0 e=0 f=0 g=0 dp=0
clk=1 reset=0 an3=1 an2=1 an1=1 an0=1 a=0 b=1 c=1 d=0 e=0 f=0 g=0 dp=0
clk=0 reset=0 an3=1 an2=1 an1=1 an0=1 a=0 b=1 c=1 d=0 e=0 f=0 g=0 dp=0
clk=1 reset=0 an3=1 an2=1 an1=1 an0=1 a=0 b=1 c=1 d=0 e=0 f=0 g=0 dp=0
clk=0 reset=0 an3=1 an2=1 an1=1 an0=1 a=0 b=1 c=1 d=0 e=0 f=0 g=0 dp=0
clk=1 reset=0 an3=1 an2=0 an1=1 an0=1 a=0 b=1 c=1 d=0 e=0 f=0 g=0 dp=0
clk=0 reset=0 an3=1 an2=0 an1=1 an0=1 a=0 b=1 c=1 d=0 e=0 f=0 g=0 dp=0
clk=1 reset=0 an3=1 an2=0 an1=1 an0=1 a=0 b=1 c=1 d=0 e=0 f=0 g=0 dp=0
clk=0 reset=0 an3=1 an2=0 an1=1 an0=1 a=0 b=1 c=1 d=0 e=0 f=0 g=0 dp=0
clk=1 reset=0 an3=1 an2=1 an1=1 an0=1 a=0 b=1 c=0 d=0 e=0 f=0 g=1 dp=0
clk=0 reset=0 an3=1 an2=1 an1=1 an0=1 a=0 b=1 c=0 d=0 e=0 f=0 g=1 dp=0
clk=1 reset=0 an3=1 an2=1 an1=1 an0=1 a=0 b=1 c=0 d=0 e=0 f=0 g=1 dp=0
clk=0 reset=0 an3=1 an2=1 an1=1 an0=1 a=0 b=1 c=0 d=0 e=0 f=0 g=1 dp=0
clk=1 reset=0 an3=1 an2=1 an1=1 an0=1 a=0 b=1 c=0 d=0 e=0 f=0 g=1 dp=0
clk=0 reset=0 an3=1 an2=1 an1=1 an0=1 a=0 b=1 c=0 d=0 e=0 f=0 g=1 dp=0
clk=1 reset=0 an3=1 an2=1 an1=1 an0=1 a=0 b=1 c=0 d=0 e=0 f=0 g=1 dp=0
clk=0 reset=0 an3=1 an2=1 an1=1 an0=1 a=0 b=1 c=0 d=0 e=0 f=0 g=1 dp=0
clk=1 reset=0 an3=1 an2=1 an1=1 an0=1 a=0 b=1 c=0 d=0 e=0 f=0 g=1 dp=0
clk=0 reset=0 an3=1 an2=1 an1=1 an0=1 a=0 b=1 c=0 d=0 e=0 f=0 g=1 dp=0
clk=1 reset=0 an3=1 an2=1 an1=1 an0=1 a=0 b=1 c=0 d=0 e=0 f=0 g=1 dp=0
clk=0 reset=0 an3=1 an2=1 an1=1 an0=1 a=0 b=1 c=0 d=0 e=0 f=0 g=1 dp=0
clk=1 reset=0 an3=0 an2=1 an1=1 an0=1 a=0 b=1 c=0 d=0 e=0 f=0 g=1 dp=0
clk=0 reset=0 an3=0 an2=1 an1=1 an0=1 a=0 b=1 c=0 d=0 e=0 f=0 g=1 dp=0
clk=1 reset=0 an3=0 an2=1 an1=1 an0=1 a=0 b=1 c=0 d=0 e=0 f=0 g=1 dp=0
clk=0 reset=0 an3=0 an2=1 an1=1 an0=1 a=0 b=1 c=0 d=0 e=0 f=0 g=1 dp=0
clk=1 reset=0 an3=1 an2=1 an1=1 an0=1 a=0 b=1 c=0 d=0 e=0 f=0 g=1 dp=0
clk=0 reset=0 an3=1 an2=1 an1=1 an0=1 a=0 b=1 c=0 d=0 e=0 f=0 g=1 dp=0
clk=1 reset=0 an3=1 an2=1 an1=1 an0=1 a=0 b=1 c=0 d=0 e=0 f=0 g=1 dp=0
clk=0 reset=0 an3=1 an2=1 an1=1 an0=1 a=0 b=1 c=0 d=0 e=0 f=0 g=1 dp=0
clk=1 reset=0 an3=1 an2=1 an1=1 an0=1 a=0 b=1 c=1 d=0 e=0 f=0 g=1 dp=0
clk=0 reset=0 an3=1 an2=1 an1=1 an0=1 a=0 b=1 c=1 d=0 e=0 f=0 g=1 dp=0
clk=1 reset=0 an3=1 an2=1 an1=1 an0=1 a=0 b=1 c=1 d=0 e=0 f=0 g=1 dp=0
clk=0 reset=0 an3=1 an2=1 an1=1 an0=1 a=0 b=1 c=1 d=0 e=0 f=0 g=1 dp=0
clk=1 reset=0 an3=1 an2=1 an1=1 an0=1 a=0 b=1 c=1 d=0 e=0 f=0 g=1 dp=0
clk=0 reset=0 an3=1 an2=1 an1=1 an0=1 a=0 b=1 c=1 d=0 e=0 f=0 g=1 dp=0
clk=1 reset=0 an3=1 an2=1 an1=1 an0=1 a=0 b=1 c=1 d=0 e=0 f=0 g=1 dp=0
clk=0 reset=0 an3=1 an2=1 an1=1 an0=1 a=0 b=1 c=1 d=0 e=0 f=0 g=1 dp=0
clk=1 reset=0 an3=1 an2=1 an1=1 an0=0 a=0 b=1 c=1 d=0 e=0 f=0 g=1 dp=0
clk=0 reset=0 an3=1 an2=1 an1=1 an0=0 a=0 b=1 c=1 d=0 e=0 f=0 g=1 dp=0
clk=1 reset=0 an3=1 an2=1 an1=1 an0=0 a=0 b=1 c=1 d=0 e=0 f=0 g=1 dp=0
clk=0 reset=0 an3=1 an2=1 an1=1 an0=0 a=0 b=1 c=1 d=0 e=0 f=0 g=1 dp=0
clk=1 reset=0 an3=1 an2=1 an1=1 an0=1 a=0 b=1 c=0 d=0 e=1 f=0 g=0 dp=0
clk=0 reset=0 an3=1 an2=1 an1=1 an0=1 a=0 b=1 c=0 d=0 e=1 f=0 g=0 dp=0
clk=1 reset=0 an3=1 an2=1 an1=1 an0=1 a=0 b=1 c=0 d=0 e=1 f=0 g=0 dp=0
clk=0 reset=0 an3=1 an2=1 an1=1 an0=1 a=0 b=1 c=0 d=0 e=1 f=0 g=0 dp=0
clk=1 reset=0 an3=1 an2=1 an1=1 an0=1 a=0 b=1 c=0 d=0 e=1 f=0 g=0 dp=0
clk=0 reset=0 an3=1 an2=1 an1=1 an0=1 a=0 b=1 c=0 d=0 e=1 f=0 g=0 dp=0
clk=1 reset=0 an3=1 an2=1 an1=1 an0=1 a=0 b=1 c=0 d=0 e=1 f=0 g=0 dp=0
clk=0 reset=0 an3=1 an2=1 an1=1 an0=1 a=0 b=1 c=0 d=0 e=1 f=0 g=0 dp=0
clk=1 reset=0 an3=1 an2=1 an1=1 an0=1 a=0 b=1 c=0 d=0 e=1 f=0 g=0 dp=0
clk=0 reset=0 an3=1 an2=1 an1=1 an0=1 a=0 b=1 c=0 d=0 e=1 f=0 g=0 dp=0
clk=1 reset=0 an3=1 an2=1 an1=1 an0=1 a=0 b=1 c=0 d=0 e=1 f=0 g=0 dp=0
clk=0 reset=0 an3=1 an2=1 an1=1 an0=1 a=0 b=1 c=0 d=0 e=1 f=0 g=0 dp=0
clk=1 reset=0 an3=1 an2=1 an1=0 an0=1 a=0 b=1 c=0 d=0 e=1 f=0 g=0 dp=0
clk=0 reset=0 an3=1 an2=1 an1=0 an0=1 a=0 b=1 c=0 d=0 e=1 f=0 g=0 dp=0
clk=1 reset=0 an3=1 an2=1 an1=0 an0=1 a=0 b=1 c=0 d=0 e=1 f=0 g=0 dp=0
clk=0 reset=0 an3=1 an2=1 an1=0 an0=1 a=0 b=1 c=0 d=0 e=1 f=0 g=0 dp=0
clk=1 reset=0 an3=1 an2=1 an1=1 an0=1 a=0 b=1 c=1 d=0 e=0 f=0 g=0 dp=0
clk=0 reset=0 an3=1 an2=1 an1=1 an0=1 a=0 b=1 c=1 d=0 e=0 f=0 g=0 dp=0
clk=1 reset=0 an3=1 an2=1 an1=1 an0=1 a=0 b=1 c=1 d=0 e=0 f=0 g=0 dp=0
clk=0 reset=0 an3=1 an2=1 an1=1 an0=1 a=0 b=1 c=1 d=0 e=0 f=0 g=0 dp=0
clk=1 reset=0 an3=1 an2=1 an1=1 an0=1 a=0 b=1 c=1 d=0 e=0 f=0 g=0 dp=0
clk=0 reset=0 an3=1 an2=1 an1=1 an0=1 a=0 b=1 c=1 d=0 e=0 f=0 g=0 dp=0
clk=1 reset=0 an3=1 an2=1 an1=1 an0=1 a=0 b=1 c=1 d=0 e=0 f=0 g=0 dp=0
clk=0 reset=0 an3=1 an2=1 an1=1 an0=1 a=0 b=1 c=1 d=0 e=0 f=0 g=0 dp=0
clk=1 reset=0 an3=1 an2=1 an1=1 an0=1 a=0 b=1 c=1 d=0 e=0 f=0 g=0 dp=0
clk=0 reset=0 an3=1 an2=1 an1=1 an0=1 a=0 b=1 c=1 d=0 e=0 f=0 g=0 dp=0
clk=1 reset=0 an3=1 an2=1 an1=1 an0=1 a=0 b=1 c=1 d=0 e=0 f=0 g=0 dp=0
clk=0 reset=0 an3=1 an2=1 an1=1 an0=1 a=0 b=1 c=1 d=0 e=0 f=0 g=0 dp=0
clk=1 reset=0 an3=1 an2=0 an1=1 an0=1 a=0 b=1 c=1 d=0 e=0 f=0 g=0 dp=0
clk=0 reset=0 an3=1 an2=0 an1=1 an0=1 a=0 b=1 c=1 d=0 e=0 f=0 g=0 dp=0
clk=1 reset=0 an3=1 an2=0 an1=1 an0=1 a=0 b=1 c=1 d=0 e=0 f=0 g=0 dp=0
clk=0 reset=0 an3=1 an2=0 an1=1 an0=1 a=0 b=1 c=1 d=0 e=0 f=0 g=0 dp=0
clk=1 reset=0 an3=1 an2=1 an1=1 an0=1 a=0 b=1 c=0 d=0 e=0 f=0 g=1 dp=0
clk=0 reset=0 an3=1 an2=1 an1=1 an0=1 a=0 b=1 c=0 d=0 e=0 f=0 g=1 dp=0
clk=1 reset=0 an3=1 an2=1 an1=1 an0=1 a=0 b=1 c=0 d=0 e=0 f=0 g=1 dp=0
clk=0 reset=0 an3=1 an2=1 an1=1 an0=1 a=0 b=1 c=0 d=0 e=0 f=0 g=1 dp=0
clk=1 reset=0 an3=1 an2=1 an1=1 an0=1 a=0 b=1 c=0 d=0 e=0 f=0 g=1 dp=0
clk=0 reset=0 an3=1 an2=1 an1=1 an0=1 a=0 b=1 c=0 d=0 e=0 f=0 g=1 dp=0
clk=1 reset=0 an3=1 an2=1 an1=1 an0=1 a=0 b=1 c=0 d=0 e=0 f=0 g=1 dp=0
clk=0 reset=0 an3=1 an2=1 an1=1 an0=1 a=0 b=1 c=0 d=0 e=0 f=0 g=1 dp=0
clk=1 reset=0 an3=1 an2=1 an1=1 an0=1 a=0 b=1 c=0 d=0 e=0 f=0 g=1 dp=0
clk=0 reset=0 an3=1 an2=1 an1=1 an0=1 a=0 b=1 c=0 d=0 e=0 f=0 g=1 dp=0
clk=1 reset=0 an3=1 an2=1 an1=1 an0=1 a=0 b=1 c=0 d=0 e=0 f=0 g=1 dp=0
clk=0 reset=0 an3=1 an2=1 an1=1 an0=1 a=0 b=1 c=0 d=0 e=0 f=0 g=1 dp=0
clk=1 reset=0 an3=0 an2=1 an1=1 an0=1 a=0 b=1 c=0 d=0 e=0 f=0 g=1 dp=0
clk=0 reset=0 an3=0 an2=1 an1=1 an0=1 a=0 b=1 c=0 d=0 e=0 f=0 g=1 dp=0
clk=1 reset=0 an3=0 an2=1 an1=1 an0=1 a=0 b=1 c=0 d=0 e=0 f=0 g=1 dp=0
clk=0 reset=0 an3=0 an2=1 an