Lab1/project_1/project_1.sim/sim_1/behav/xsim/tb_FourDigitDriver.vcd
$date
   Wed Oct 16 18:42:50 2024
$end
$version
  2018.3
$end
$timescale
  1ps
$end
$scope module tb_FourDigitDriver $end
$var reg 1 ! clk $end
$var reg 1 " reset $end
$var wire 1 # an3 $end
$var wire 1 $ an2 $end
$var wire 1 % an1 $end
$var wire 1 & an0 $end
$var wire 1 ' a $end
$var wire 1 ( b $end
$var wire 1 ) c $end
$var wire 1 * d $end
$var wire 1 + e $end
$var wire 1 , f $end
$var wire 1 - g $end
$var wire 1 . dp $end
$var wire 4 / counter [3:0] $end
$var wire 4 0 char [3:0] $end
$var reg 1 1 button $end
$scope module FourDigitLEDdriver_inst $end
$var wire 1 2 clk $end
$var wire 1 3 reset $end
$var wire 1 ' a $end
$var wire 1 ( b $end
$var wire 1 ) c $end
$var wire 1 * d $end
$var wire 1 + e $end
$var wire 1 , f $end
$var wire 1 - g $end
$var wire 1 . dp $end
$var wire 1 4 button_debounced $end
$var reg 1 5 an3 $end
$var reg 1 6 an2 $end
$var reg 1 7 an1 $end
$var reg 1 8 an0 $end
$var reg 4 9 counter [3:0] $end
$var wire 1 : new_clk $end
$var wire 1 ; button_ON $end
$var wire 1 < enabled $end
$var wire 1 = button $end
$var wire 5 > button_presses [4:0] $end
$var wire 4 ? char [3:0] $end
$var reg 1 @ reset_sync $end
$var reg 1 A reset_prime $end
$var parameter 4 B AN0_LOW [3:0] $end
$var parameter 4 C AN1_LOW [3:0] $end
$var parameter 4 D AN2_LOW [3:0] $end
$var parameter 4 E AN3_LOW [3:0] $end
$var parameter 4 F AN0_SETUP_BUS [3:0] $end
$var parameter 4 G AN1_SETUP_BUS [3:0] $end
$var parameter 4 H AN2_SETUP_BUS [3:0] $end
$var parameter 4 I AN3_SETUP_BUS [3:0] $end
$scope module LEDdecoder_inst $end
$var wire 4 ? char [3:0] $end
$var reg 7 J LED [6:0] $end
$upscope $end
$scope module debounce_inst $end
$var wire 1 2 clk $end
$var wire 1 K reset $end
$var wire 1 = button $end
$var reg 1 L button_debounced $end
$var reg 3 M FF_wire [2:0] $end
$var reg 5 N counter [4:0] $end
$var wire 1 < enabled $end
$var wire 1 ; button_ON $end
$upscope $end
$scope module char_decoder_inst $end
$var wire 4 9 counter [3:0] $end
$var wire 1 O reset $end
$var reg 4 P char [3:0] $end
$var wire 5 > button_presses [4:0] $end
$var parameter 4 Q AN0_SETUP_BUS [3:0] $end
$var parameter 4 R AN1_SETUP_BUS [3:0] $end
$var parameter 4 S AN2_SETUP_BUS [3:0] $end
$var parameter 4 T AN3_SETUP_BUS [3:0] $end
$upscope $end
$upscope $end
$upscope $end
$enddefinitions $end
#0
$dumpvars
0!
x"
x#
x$
x%
x&
x'
x(
x)
x*
x+
x,
x-
0.
bx /
bz 0
x1
02
x3
x4
x5
x6
x7
x8
bx 9
0:
x;
x<
x=
b0 >
bx ?
x@
xA
b10 B
b110 C
b1010 D
b1110 E
b0 F
b11 G
b111 H
b1011 I
bx J
xK
xL
bx M
bx N
xO
bx P
b0 Q
b11 R
b111 S
b1011 T
$end
#5000
1!
12
bx 9
1:
#10000
0!
02
#15000
1!
12
0:
#20000
0!
02
#25000
1!
12
bx 9
1:
#30000
0!
02
#35000
1!
12
0:
#40000
0!
02
#45000
1!
12
bx 9
1:
#50000
0!
02
#55000
1!
12
0:
#60000
0!
02
#65000
1!
12
bx 9
1:
#70000
0!
02
#75000
1!
12
0:
#80000
0!
02
#85000
1!
12
bx 9
1:
#90000
0!
1"
02
13
#95000
1!
12
0:
1A
#100000
0!
02
#105000
1!
1#
1$
1%
1&
b0 /
12
04
15
16
17
18
b0 9
1:
1<
1@
1K
0L
1O
bx P
#110000
0!
02
#115000
1!
12
0:
0L
b0 N
#120000
0!
02
#125000
1!
12
b0 9
1:
0L
#130000
0!
02
#135000
1!
12
0:
0L
#140000
0!
02
#145000
1!
12
b0 9
1:
0L
#150000
0!
02
#155000
1!
12
0:
0L
#160000
0!
02
#165000
1!
12
b0 9
1:
0L
#170000
0!
02
#175000
1!
12
0:
0L
#180000
0!
02
#185000
1!
12
b0 9
1:
0L
#190000
0!
02
#195000
1!
12
0:
0L
#200000
0!
02
#205000
1!
12
b0 9
1:
0L
#210000
0!
02
#215000
1!
12
0:
0L
#220000
0!
02
#225000
1!
12
b0 9
1:
0L
#230000
0!
02
#235000
1!
12
0:
0L
#240000
0!
0"
02
03
#245000
1!
12
b0 9
1:
0A
0L
#250000
0!
11
02
1=
#255000
1!
12
0:
0@
0K
0L
bx1 M
0O
#260000
0!
02
#265000
1!
0'
1(
1)
0*
0+
0,
1-
b1 /
12
15
16
17
18
b1 9
1:
x;
b1100 ?
b110001 J
0L
bx11 M
b1100 P
#270000
0!
02
#275000
1!
12
0:
1;
0L
b111 M
#280000
0!
02
#285000
1!
0&
b10 /
12
15
16
17
08
b10 9
1:
0L
b1 N
b1100 P
#290000
0!
02
#295000
1!
12
0:
0L
b10 N
#300000
0!
02
#305000
1!
1&
0'
1(
0)
0*
1+
0,
0-
b11 /
12
15
16
17
18
b11 9
1:
b0 ?
b100100 J
0L
b11 N
b0 P
#310000
0!
02
#315000
1!
12
0:
0L
b100 N
#320000
0!
02
#325000
1!
b100 /
12
15
16
17
18
b100 9
1:
0L
b101 N
b0 P
#330000
0!
02
#335000
1!
12
0:
0L
b110 N
#340000
0!
02
#345000
1!
b101 /
12
15
16
17
18
b101 9
1:
0L
b111 N
b0 P
#350000
0!
02
#355000
1!
12
0:
0L
b1000 N
#360000
0!
02
#365000
1!
0%
b110 /
12
15
16
07
18
b110 9
1:
0L
b1001 N
#370000
0!
02
#375000
1!
12
0:
0L
b1010 N
#380000
0!
02
#385000
1!
1%
0'
1(
1)
0*
0+
0,
0-
b111 /
12
15
16
17
18
b111 9
1:
b1110 ?
b110000 J
0L
b1011 N
b1110 P
#390000
0!
02
#395000
1!
12
0:
0L
b1100 N
#400000
0!
02
#405000
1!
b1000 /
12
15
16
17
18
b1000 9
1:
0L
b1101 N
b1110 P
#410000
0!
02
#415000
1!
12
0:
0L
b1110 N
#420000
0!
02
#425000
1!
b1001 /
12
15
16
17
18
b1001 9
1:
0L
b1111 N
b1110 P
#430000
0!
02
#435000
1!
12
0:
0L
b10000 N
#440000
0!
02
#445000
1!
0$
b1010 /
12
15
06
17
18
b1010 9
1:
0L
b10001 N
#450000
0!
02
#455000
1!
12
0:
0L
b10010 N
#460000
0!
02
#465000
1!
1$
0'
1(
0)
0*
0+
0,
1-
b1011 /
12
15
16
17
18
b1011 9
1:
b1 ?
b100001 J
0L
b10011 N
b1 P
#470000
0!
02
#475000
1!
12
0:
0L
b10100 N
#480000
0!
02
#485000
1!
b1100 /
12
15
16
17
18
b1100 9
1:
0L
b10101 N
#490000
0!
02
#495000
1!
12
0:
0L
b10110 N
#500000
0!
02
#505000
1!
b1101 /
12
15
16
17
18
b1101 9
1:
0L
b10111 N
#510000
0!
02
#515000
1!
12
0:
0L
b11000 N
#520000
0!
02
#525000
1!
0#
b1110 /
12
05
16
17
18
b1110 9
1:
0L
b11001 N
b1 P
#530000
0!
02
#535000
1!
12
0:
0L
b11010 N
#540000
0!
02
#545000
1!
1#
b1111 /
12
15
16
17
18
b1111 9
1:
0L
b11011 N
b1 P
#550000
0!
02
#555000
1!
12
0:
0L
b11100 N
#560000
0!
02
#565000
1!
0'
1(
1)
0*
0+
0,
1-
b0 /
12
15
16
17
18
b0 9
1:
b1100 ?
b110001 J
0L
b11101 N
b1100 P
#570000
0!
02
#575000
1!
12
0:
0L
b11110 N
#580000
0!
02
#585000
1!
b1 /
12
15
16
17
18
b1 9
1:
0L
b11111 N
b1100 P
#590000
0!
02
#595000
1!
12
14
0:
0<
1L
b0 N
#600000
0!
02
#605000
1!
0&
b10 /
12
15
16
17
08
b10 9
1:
b1100 P
#610000
0!
02
#615000
1!
12
0:
#620000
0!
02
#625000
1!
1&
0'
1(
0)
0*
1+
0,
0-
b11 /
12
15
16
17
18
b11 9
1:
b0 ?
b100100 J
b0 P
#630000
0!
02
#635000
1!
12
0:
#640000
0!
02
#645000
1!
b100 /
12
15
16
17
18
b100 9
1:
b0 P
#650000
0!
02
#655000
1!
12
0:
#660000
0!
02
#665000
1!
b101 /
12
15
16
17
18
b101 9
1:
b0 P
#670000
0!
02
#675000
1!
12
0:
#680000
0!
02
#685000
1!
0%
b110 /
12
15
16
07
18
b110 9
1:
#690000
0!
02
#695000
1!
12
0:
#700000
0!
02
#705000
1!
1%
0'
1(
1)
0*
0+
0,
0-
b111 /
12
15
16
17
18
b111 9
1:
b1110 ?
b110000 J
b1110 P
#710000
0!
02
#715000
1!
12
0:
#720000
0!
02
#725000
1!
b1000 /
12
15
16
17
18
b1000 9
1:
b1110 P
#730000
0!
02
#735000
1!
12
0:
#740000
0!
02
#745000
1!
b1001 /
12
15
16
17
18
b1001 9
1:
b1110 P
#750000
0!
02
#755000
1!
12
0:
#760000
0!
02
#765000
1!
0$
b1010 /
12
15
06
17
18
b1010 9
1:
#770000
0!
02
#775000
1!
12
0:
#780000
0!
02
#785000
1!
1$
0'
1(
0)
0*
0+
0,
1-
b1011 /
12
15
16
17
18
b1011 9
1:
b1 ?
b100001 J
b1 P
#790000
0!
02
#795000
1!
12
0:
#800000
0!
02
#805000
1!
b1100 /
12
15
16
17
18
b1100 9
1:
#810000
0!
02
#815000
1!
12
0:
#820000
0!
02
#825000
1!
b1101 /
12
15
16
17
18
b1101 9
1:
#830000
0!
02
#835000
1!
12
0:
#840000
0!
02
#845000
1!
0#
b1110 /
12
05
16
17
18
b1110 9
1:
b1 P
#850000
0!
02
#855000
1!
12
0:
#860000
0!
02
#865000
1!
1#
b1111 /
12
15
16
17
18
b1111 9
1:
b1 P
#870000
0!
02
#875000
1!
12
0:
#880000
0!
02
#885000
1!
0'
1(
1)
0*
0+
0,
1-
b0 /
12
15
16
17
18
b0 9
1:
b1100 ?
b110001 J
b1100 P
#890000
0!
02
#895000
1!
12
0:
#900000
0!
02
#905000
1!
b1 /
12
15
16
17
18
b1 9
1:
b1100 P
#910000
0!
02
#915000
1!
12
0:
#920000
0!
02
#925000
1!
0&
b10 /
12
15
16
17
08
b10 9
1:
b1100 P
#930000
0!
02
#935000
1!
12
0:
#940000
0!
02
#945000
1!
1&
0'
1(
0)
0*
1+
0,
0-
b11 /
12
15
16
17
18
b11 9
1:
b0 ?
b100100 J
b0 P
#950000
0!
02
#955000
1!
12
0:
#960000
0!
02
#965000
1!
b100 /
12
15
16
17
18
b100 9
1:
b0 P
#970000
0!
02
#975000
1!
12
0:
#980000
0!
02
#985000
1!
b101 /
12
15
16
17
18
b101 9
1:
b0 P
