Lab1/project_1/project_1.sim/sim_1/behav/xsim/tb_FourDigitDriver.vcd
$date
   Tue Oct 15 14:32:40 2024
$end
$version
  2018.3
$end
$timescale
  1ps
$end
$scope module tb_FourDigitDriver $end
$var reg 1 ! clk $end
$var reg 1 " reset $end
$var wire 1 # an3 $end
$var wire 1 $ an2 $end
$var wire 1 % an1 $end
$var wire 1 & an0 $end
$var wire 1 ' a $end
$var wire 1 ( b $end
$var wire 1 ) c $end
$var wire 1 * d $end
$var wire 1 + e $end
$var wire 1 , f $end
$var wire 1 - g $end
$var wire 1 . dp $end
$var wire 4 / counter [3:0] $end
$var wire 4 0 char [3:0] $end
$scope module FourDigitLEDdriver_inst $end
$var wire 1 1 clk $end
$var wire 1 2 reset $end
$var wire 1 ' a $end
$var wire 1 ( b $end
$var wire 1 ) c $end
$var wire 1 * d $end
$var wire 1 + e $end
$var wire 1 , f $end
$var wire 1 - g $end
$var wire 1 . dp $end
$var reg 1 3 an3 $end
$var reg 1 4 an2 $end
$var reg 1 5 an1 $end
$var reg 1 6 an0 $end
$var reg 4 7 counter [3:0] $end
$var reg 4 8 char [3:0] $end
$var wire 1 9 new_clk $end
$var reg 1 : reset_sync $end
$var reg 1 ; reset_prime $end
$var parameter 4 < AN0_LOW [3:0] $end
$var parameter 4 = AN1_LOW [3:0] $end
$var parameter 4 > AN2_LOW [3:0] $end
$var parameter 4 ? AN3_LOW [3:0] $end
$var parameter 4 @ AN0_SETUP_BUS [3:0] $end
$var parameter 4 A AN1_SETUP_BUS [3:0] $end
$var parameter 4 B AN2_SETUP_BUS [3:0] $end
$var parameter 4 C AN3_SETUP_BUS [3:0] $end
$scope module LEDdecoder_inst $end
$var wire 4 8 char [3:0] $end
$var reg 7 D LED [6:0] $end
$upscope $end
$upscope $end
$upscope $end
$enddefinitions $end
#0
$dumpvars
0!
x"
x#
x$
x%
x&
x'
x(
x)
x*
x+
x,
x-
0.
bx /
bx 0
01
x2
x3
x4
x5
x6
bx 7
bx 8
09
x:
x;
b10 <
b110 =
b1010 >
b1110 ?
b0 @
b11 A
b111 B
b1011 C
bx D
$end
#5000
1!
11
bx 7
19
#10000
0!
01
#15000
1!
11
09
#20000
0!
01
#25000
1!
11
bx 7
19
#30000
0!
01
#35000
1!
11
09
#40000
0!
01
#45000
1!
11
bx 7
19
#50000
0!
01
#55000
1!
11
09
#60000
0!
01
#65000
1!
11
bx 7
19
#70000
0!
01
#75000
1!
11
09
#80000
0!
01
#85000
1!
11
bx 7
19
#90000
0!
1"
01
12
#95000
1!
11
09
1;
#100000
0!
01
#105000
1!
1#
1$
1%
1&
0'
0(
0)
0*
0+
0,
0-
b0 /
b0 0
11
13
14
15
16
b0 7
b0 8
19
1:
b0 D
#110000
0!
01
#115000
1!
11
09
#120000
0!
01
#125000
1!
11
b0 7
19
#130000
0!
01
#135000
1!
11
09
#140000
0!
01
#145000
1!
11
b0 7
19
#150000
0!
01
#155000
1!
11
09
#160000
0!
01
#165000
1!
11
b0 7
19
#170000
0!
01
#175000
1!
11
09
#180000
0!
01
#185000
1!
11
b0 7
19
#190000
0!
01
#195000
1!
11
09
#200000
0!
01
#205000
1!
11
b0 7
19
#210000
0!
01
#215000
1!
11
09
#220000
0!
01
#225000
1!
11
b0 7
19
#230000
0!
01
#235000
1!
11
09
#240000
0!
0"
01
02
#245000
1!
11
b0 7
19
0;
#250000
0!
01
#255000
1!
11
09
0:
#260000
0!
01
#265000
1!
b1 /
11
13
14
15
16
b1 7
b0 8
19
#270000
0!
01
#275000
1!
11
09
#280000
0!
01
#285000
1!
0&
b10 /
11
13
14
15
06
b10 7
b0 8
19
#290000
0!
01
#295000
1!
11
09
#300000
0!
01
#305000
1!
1&
0'
1(
1)
0*
0+
0,
0-
b11 /
b1 0
11
13
14
15
16
b11 7
b1 8
19
b110000 D
#310000
0!
01
#315000
1!
11
09
#320000
0!
01
#325000
1!
b100 /
11
13
14
15
16
b100 7
b1 8
19
#330000
0!
01
#335000
1!
11
09
#340000
0!
01
#345000
1!
b101 /
11
13
14
15
16
b101 7
b1 8
19
#350000
0!
01
#355000
1!
11
09
#360000
0!
01
#365000
1!
0%
b110 /
11
13
14
05
16
b110 7
19
#370000
0!
01
#375000
1!
11
09
#380000
0!
01
#385000
1!
1%
1'
1(
0)
1*
1+
0,
1-
b111 /
b10 0
11
13
14
15
16
b111 7
b10 8
19
b1101101 D
#390000
0!
01
#395000
1!
11
09
#400000
0!
01
#405000
1!
b1000 /
11
13
14
15
16
b1000 7
b10 8
19
#410000
0!
01
#415000
1!
11
09
#420000
0!
01
#425000
1!
b1001 /
11
13
14
15
16
b1001 7
b10 8
19
#430000
0!
01
#435000
1!
11
09
#440000
0!
01
#445000
1!
0$
b1010 /
11
13
04
15
16
b1010 7
19
#450000
0!
01
#455000
1!
11
09
#460000
0!
01
#465000
1!
1$
1'
1(
1)
1*
0+
0,
1-
b1011 /
b11 0
11
13
14
15
16
b1011 7
b11 8
19
b1111001 D
#470000
0!
01
#475000
1!
11
09
#480000
0!
01
#485000
1!
b1100 /
11
13
14
15
16
b1100 7
19
#490000
0!
01
#495000
1!
11
09
#500000
0!
01
#505000
1!
b1101 /
11
13
14
15
16
b1101 7
19
#510000
0!
01
#515000
1!
11
09
#520000
0!
01
#525000
1!
0#
b1110 /
11
03
14
15
16
b1110 7
b11 8
19
#530000
0!
01
#535000
1!
11
09
#540000
0!
01
#545000
1!
1#
b1111 /
11
13
14
15
16
b1111 7
b11 8
19
#550000
0!
01
#555000
1!
11
09
#560000
0!
01
#565000
1!
0'
0(
0)
0*
0+
0,
0-
b0 /
b0 0
11
13
14
15
16
b0 7
b0 8
19
b0 D
#570000
0!
01
#575000
1!
11
09
#580000
0!
01
#585000
1!
b1 /
11
13
14
15
16
b1 7
b0 8
19
#590000
0!
01
#595000
1!
11
09
#600000
0!
01
#605000
1!
0&
b10 /
11
13
14
15
06
b10 7
b0 8
19
#610000
0!
01
#615000
1!
11
09
#620000
0!
01
#625000
1!
1&
0'
1(
1)
0*
0+
0,
0-
b11 /
b1 0
11
13
14
15
16
b11 7
b1 8
19
b110000 D
#630000
0!
01
#635000
1!
11
09
#640000
0!
01
#645000
1!
b100 /
11
13
14
15
16
b100 7
b1 8
19
#650000
0!
01
#655000
1!
11
09
#660000
0!
01
#665000
1!
b101 /
11
13
14
15
16
b101 7
b1 8
19
#670000
0!
01
#675000
1!
11
09
#680000
0!
01
#685000
1!
0%
b110 /
11
13
14
05
16
b110 7
19
#690000
0!
01
#695000
1!
11
09
#700000
0!
01
#705000
1!
1%
1'
1(
0)
1*
1+
0,
1-
b111 /
b10 0
11
13
14
15
16
b111 7
b10 8
19
b1101101 D
#710000
0!
01
#715000
1!
11
09
#720000
0!
01
#725000
1!
b1000 /
11
13
14
15
16
b1000 7
b10 8
19
#730000
0!
01
#735000
1!
11
09
#740000
0!
01
#745000
1!
b1001 /
11
13
14
15
16
b1001 7
b10 8
19
#750000
0!
01
#755000
1!
11
09
#760000
0!
01
#765000
1!
0$
b1010 /
11
13
04
15
16
b1010 7
19
#770000
0!
01
#775000
1!
11
09
#780000
0!
01
#785000
1!
1$
1'
1(
1)
1*
0+
0,
1-
b1011 /
b11 0
11
13
14
15
16
b1011 7
b11 8
19
b1111001 D
#790000
0!
01
#795000
1!
11
09
#800000
0!
01
#805000
1!
b1100 /
11
13
14
15
16
b1100 7
19
#810000
0!
01
#815000
1!
11
09
#820000
0!
01
#825000
1!
b1101 /
11
13
14
15
16
b1101 7
19
#830000
0!
01
#835000
1!
11
09
#840000
0!
01
#845000
1!
0#
b1110 /
11
03
14
15
16
b1110 7
b11 8
19
#850000
0!
01
#855000
1!
11
09
#860000
0!
01
#865000
1!
1#
b1111 /
11
13
14
15
16
b1111 7
b11 8
19
#870000
0!
01
#875000
1!
11
09
#880000
0!
01
#885000
1!
0'
0(
0)
0*
0+
0,
0-
b0 /
b0 0
11
13
14
15
16
b0 7
b0 8
19
b0 D
#890000
0!
01
#895000
1!
11
09
#900000
0!
01
#905000
1!
b1 /
11
13
14
15
16
b1 7
b0 8
19
#910000
0!
01
#915000
1!
11
09
#920000
0!
01
#925000
1!
0&
b10 /
11
13
14
15
06
b10 7
b0 8
19
#930000
0!
01
#935000
1!
11
09
#940000
0!
01
#945000
1!
1&
0'
1(
1)
0*
0+
0,
0-
b11 /
b1 0
11
13
14
15
16
b11 7
b1 8
19
b110000 D
#950000
0!
01
#955000
1!
11
09
#960000
0!
01
#965000
1!
b100 /
11
13
14
15
16
b100 7
b1 8
19
#970000
0!
01
#975000
1!
11
09
#980000
0!
01
#985000
1!
b101 /
11
13
14
15
16
b101 7
b1 8
19
