Lab1/project_1/project_1.sim/sim_1/synth/timing/xsim/tb_FourDigitDriver.vcd
$date
   Mon Oct 14 20:13:18 2024
$end
$version
  2018.3
$end
$timescale
  1ps
$end
$scope module tb_FourDigitDriver $end
$var reg 1 ! clk $end
$var reg 1 " reset $end
$var wire 1 # an3 $end
$var wire 1 $ an2 $end
$var wire 1 % an1 $end
$var wire 1 & an0 $end
$var wire 1 ' a $end
$var wire 1 ( b $end
$var wire 1 ) c $end
$var wire 1 * d $end
$var wire 1 + e $end
$var wire 1 , f $end
$var wire 1 - g $end
$var wire 1 . dp $end
$var wire 4 / counter [3:0] $end
$var wire 4 0 char [3:0] $end
$scope module FourDigitLEDdriver_inst $end
$var wire 1 ' a $end
$var wire 1 & an0 $end
$var wire 1 1 an0_OBUF $end
$var wire 1 % an1 $end
$var wire 1 2 an1_OBUF $end
$var wire 1 $ an2 $end
$var wire 1 3 an2_OBUF $end
$var wire 1 # an3 $end
$var wire 1 4 an3_OBUF $end
$var wire 1 ( b $end
$var wire 1 5 b_OBUF $end
$var wire 1 ) c $end
$var wire 4 0 char [3:0] $end
$var wire 2 6 char_OBUF [1:0] $end
$var wire 1 7 \char_reg[0]_i_1_n_0  $end
$var wire 1 8 \char_reg[1]_i_1_n_0  $end
$var wire 1 9 \char_reg[1]_i_2_n_0  $end
$var wire 1 : clk $end
$var wire 1 ; clk_IBUF $end
$var wire 1 < clk_IBUF_BUFG $end
$var wire 4 / counter [3:0] $end
$var wire 4 = counter_OBUF [3:0] $end
$var wire 1 * d $end
$var wire 1 . dp $end
$var wire 1 + e $end
$var wire 1 > e_OBUF $end
$var wire 1 , f $end
$var wire 1 - g $end
$var wire 1 ? new_clk $end
$var wire 4 @ p_0_in [3:0] $end
$var wire 1 A reset $end
$var wire 1 B reset_IBUF $end
$var wire 1 C reset_prime $end
$var wire 1 D reset_sync $end
$var wire 1 E NLW_MMCME2_BASE_inst_CLKFBOUT_UNCONNECTED $end
$var wire 1 F NLW_MMCME2_BASE_inst_CLKFBOUTB_UNCONNECTED $end
$var wire 1 G NLW_MMCME2_BASE_inst_CLKFBSTOPPED_UNCONNECTED $end
$var wire 1 H NLW_MMCME2_BASE_inst_CLKINSTOPPED_UNCONNECTED $end
$var wire 1 I NLW_MMCME2_BASE_inst_CLKOUT0B_UNCONNECTED $end
$var wire 1 J NLW_MMCME2_BASE_inst_CLKOUT1_UNCONNECTED $end
$var wire 1 K NLW_MMCME2_BASE_inst_CLKOUT1B_UNCONNECTED $end
$var wire 1 L NLW_MMCME2_BASE_inst_CLKOUT2_UNCONNECTED $end
$var wire 1 M NLW_MMCME2_BASE_inst_CLKOUT2B_UNCONNECTED $end
$var wire 1 N NLW_MMCME2_BASE_inst_CLKOUT3_UNCONNECTED $end
$var wire 1 O NLW_MMCME2_BASE_inst_CLKOUT3B_UNCONNECTED $end
$var wire 1 P NLW_MMCME2_BASE_inst_CLKOUT4_UNCONNECTED $end
$var wire 1 Q NLW_MMCME2_BASE_inst_CLKOUT5_UNCONNECTED $end
$var wire 1 R NLW_MMCME2_BASE_inst_CLKOUT6_UNCONNECTED $end
$var wire 1 S NLW_MMCME2_BASE_inst_DRDY_UNCONNECTED $end
$var wire 1 T NLW_MMCME2_BASE_inst_LOCKED_UNCONNECTED $end
$var wire 1 U NLW_MMCME2_BASE_inst_PSDONE_UNCONNECTED $end
$var wire 16 V NLW_MMCME2_BASE_inst_DO_UNCONNECTED [15:0] $end
$upscope $end
$upscope $end
$enddefinitions $end
#0
$dumpvars
0!
x"
x#
x$
x%
x&
x'
x(
x)
x*
x+
x,
x-
x.
bx /
bx 0
x1
x2
x3
x4
x5
bx 6
x7
x8
x9
0:
x;
x<
bx =
x>
0?
bx @
xA
xB
xC
xD
0E
1F
xG
xH
1I
0J
1K
0L
1M
0N
1O
0P
0Q
0R
xS
xT
xU
bx V
$end
#96
x<
#100
0G
0H
0S
0T
0U
bx V
#116
x4
x9
bx @
#124
x1
x2
x3
x7
#265
b0 6
#362
b0 =
0C
0D
#684
x5
0>
#714
05
0>
#844
x8
bx1 @
#960
14
#968
12
13
#1003
x8
bx001 @
#1127
11
07
#1153
19
b1 @
#1296
08
b1 @
#1476
xB
#1481
0;
#2379
0<
#2633
bx /
b0xx 0
#3492
x)
#3532
x+
#3534
x%
x&
#3536
x-
#3537
0.
#3549
x*
#3551
x#
#3554
x(
#3559
0,
#3573
x$
#3576
x'
#3701
b0 0
#3973
b0 /
#4560
0)
#4604
0-
#4617
0*
#4644
0'
#5000
1!
1:
#5019
0+
#5071
0(
#5305
1%
#5314
1#
#5344
1$
#5464
1&
